…
```r
# Display the structure and a sample of the data
weather_tpa
```

```
## # A tibble: 365 × 7
##     year month   day precipitation max_temp min_temp ave_temp
##    <dbl> <dbl> <dbl>         <dbl>    <dbl>    <dbl>    <dbl>
##  1  2022     1     1       0             82       67     74.5
##  2  2022     1     2       0             82       71     76.5
##  3  2022     1     3       0.02          75       55     65  
##  4  2022     1     4       0             76       50     63  
##  5  2022     1     5       0             75       59     67  
##  6  2022     1     6       0.00001       74       56     65  
##  7  2022     1     7       0.00001       81       63     72  
##  8  2022     1     8       0             81       58     69.5
##  9  2022     1     9       0             84       65     74.5
## 10  2022     1    10       0             81       64     72.5
## # ℹ 355 more rows
```
…
```r
# Random sample to inspect the data
sample_n(weather_tpa, 100)
```

```
## # A tibble: 100 × 8
##     year month   day precipitation max_temp min_temp ave_temp date      
##    <dbl> <dbl> <dbl>         <dbl>    <dbl>    <dbl>    <dbl> <date>    
##  1  2022     8     5       0.00001       96       78     87   2022-08-05
##  2  2022     7     7       0.03          93       81     87   2022-07-07
##  3  2022     4    21       0             87       67     77   2022-04-21
##  4  2022    11    16       0.14          79       62     70.5 2022-11-16
##  5  2022     3    27       0             81       63     72   2022-03-27
##  6  2022     1    27       0             74       59     66.5 2022-01-27
##  7  2022     9    22       0             94       77     85.5 2022-09-22
##  8  2022     1    12       0             77       54     65.5 2022-01-12
##  9  2022    10    11       0.00001       89       74     81.5 2022-10-11
## 10  2022     2     1       0             76       49     62.5 2022-02-01
## # ℹ 90 more rows
```
…
